<?xml version="1.0" encoding="utf-8"?>
<!-- Generator: Adobe Illustrator 18.1.1, SVG Export Plug-In . SVG Version: 6.00 Build 0)  -->
<svg version="1.1" id="圖層_1" xmlns="http://www.w3.org/2000/svg" xmlns:xlink="http://www.w3.org/1999/xlink" x="0px" y="0px"
	 viewBox="0 0 1920 98.4" enable-background="new 0 0 1920 98.4" xml:space="preserve">
<polygon fill="#FFFFFF" points="961.8,98.2 958.2,98.2 0,0 0,98.2 0,98.4 0,398.2 1920,398.2 1920,98.4 1920,98.2 1920,0 "/>
</svg>
